%YAML 1.1
%TAG !u! tag:unity3d.com,2011:
--- !u!1001 &975933795856619419
PrefabInstance:
  m_ObjectHideFlags: 0
  serializedVersion: 2
  m_Modification:
    serializedVersion: 3
    m_TransformParent: {fileID: 0}
    m_Modifications:
    - target: {fileID: -8679921383154817045, guid: e681471e1e656b247b499c45d1b87c0e,
        type: 3}
      propertyPath: m_LocalPosition.x
      value: 0
      objectReference: {fileID: 0}
    - target: {fileID: -8679921383154817045, guid: e681471e1e656b247b499c45d1b87c0e,
        type: 3}
      propertyPath: m_LocalPosition.y
      value: 0
      objectReference: {fileID: 0}
    - target: {fileID: -8679921383154817045, guid: e681471e1e656b247b499c45d1b87c0e,
        type: 3}
      propertyPath: m_LocalPosition.z
      value: 0
      objectReference: {fileID: 0}
    - target: {fileID: -8679921383154817045, guid: e681471e1e656b247b499c45d1b87c0e,
        type: 3}
      propertyPath: m_LocalRotation.w
      value: 1
      objectReference: {fileID: 0}
    - target: {fileID: -8679921383154817045, guid: e681471e1e656b247b499c45d1b87c0e,
        type: 3}
      propertyPath: m_LocalRotation.x
      value: 0
      objectReference: {fileID: 0}
    - target: {fileID: -8679921383154817045, guid: e681471e1e656b247b499c45d1b87c0e,
        type: 3}
      propertyPath: m_LocalRotation.y
      value: 0
      objectReference: {fileID: 0}
    - target: {fileID: -8679921383154817045, guid: e681471e1e656b247b499c45d1b87c0e,
        type: 3}
      propertyPath: m_LocalRotation.z
      value: 0
      objectReference: {fileID: 0}
    - target: {fileID: -8679921383154817045, guid: e681471e1e656b247b499c45d1b87c0e,
        type: 3}
      propertyPath: m_LocalEulerAnglesHint.x
      value: 0
      objectReference: {fileID: 0}
    - target: {fileID: -8679921383154817045, guid: e681471e1e656b247b499c45d1b87c0e,
        type: 3}
      propertyPath: m_LocalEulerAnglesHint.y
      value: 0
      objectReference: {fileID: 0}
    - target: {fileID: -8679921383154817045, guid: e681471e1e656b247b499c45d1b87c0e,
        type: 3}
      propertyPath: m_LocalEulerAnglesHint.z
      value: 0
      objectReference: {fileID: 0}
    - target: {fileID: 919132149155446097, guid: e681471e1e656b247b499c45d1b87c0e,
        type: 3}
      propertyPath: m_Name
      value: Colobus_Animations
      objectReference: {fileID: 0}
    - target: {fileID: 5866666021909216657, guid: e681471e1e656b247b499c45d1b87c0e,
        type: 3}
      propertyPath: m_Controller
      value: 
      objectReference: {fileID: 9100000, guid: f31c53c404c213f44a91991f50d28194, type: 2}
    m_RemovedComponents: []
    m_RemovedGameObjects: []
    m_AddedGameObjects: []
    m_AddedComponents:
    - targetCorrespondingSourceObject: {fileID: 919132149155446097, guid: e681471e1e656b247b499c45d1b87c0e,
        type: 3}
      insertIndex: -1
      addedObject: {fileID: 2284803568891777196}
    - targetCorrespondingSourceObject: {fileID: 919132149155446097, guid: e681471e1e656b247b499c45d1b87c0e,
        type: 3}
      insertIndex: -1
      addedObject: {fileID: 7211181239661340358}
    - targetCorrespondingSourceObject: {fileID: 919132149155446097, guid: e681471e1e656b247b499c45d1b87c0e,
        type: 3}
      insertIndex: -1
      addedObject: {fileID: 7637471347634558741}
    - targetCorrespondingSourceObject: {fileID: 919132149155446097, guid: e681471e1e656b247b499c45d1b87c0e,
        type: 3}
      insertIndex: -1
      addedObject: {fileID: 3815394588235048751}
  m_SourcePrefab: {fileID: 100100000, guid: e681471e1e656b247b499c45d1b87c0e, type: 3}
--- !u!1 &92991523382635210 stripped
GameObject:
  m_CorrespondingSourceObject: {fileID: 919132149155446097, guid: e681471e1e656b247b499c45d1b87c0e,
    type: 3}
  m_PrefabInstance: {fileID: 975933795856619419}
  m_PrefabAsset: {fileID: 0}
--- !u!54 &2284803568891777196
Rigidbody:
  m_ObjectHideFlags: 0
  m_CorrespondingSourceObject: {fileID: 0}
  m_PrefabInstance: {fileID: 0}
  m_PrefabAsset: {fileID: 0}
  m_GameObject: {fileID: 92991523382635210}
  serializedVersion: 4
  m_Mass: 1
  m_Drag: 0
  m_AngularDrag: 0.05
  m_CenterOfMass: {x: 0, y: 0, z: 0}
  m_InertiaTensor: {x: 1, y: 1, z: 1}
  m_InertiaRotation: {x: 0, y: 0, z: 0, w: 1}
  m_IncludeLayers:
    serializedVersion: 2
    m_Bits: 0
  m_ExcludeLayers:
    serializedVersion: 2
    m_Bits: 0
  m_ImplicitCom: 1
  m_ImplicitTensor: 1
  m_UseGravity: 1
  m_IsKinematic: 1
  m_Interpolate: 0
  m_Constraints: 0
  m_CollisionDetection: 0
--- !u!65 &7211181239661340358
BoxCollider:
  m_ObjectHideFlags: 0
  m_CorrespondingSourceObject: {fileID: 0}
  m_PrefabInstance: {fileID: 0}
  m_PrefabAsset: {fileID: 0}
  m_GameObject: {fileID: 92991523382635210}
  m_Material: {fileID: 0}
  m_IncludeLayers:
    serializedVersion: 2
    m_Bits: 0
  m_ExcludeLayers:
    serializedVersion: 2
    m_Bits: 0
  m_LayerOverridePriority: 0
  m_IsTrigger: 0
  m_ProvidesContacts: 0
  m_Enabled: 1
  serializedVersion: 3
  m_Size: {x: 1.8778337, y: 0.79653496, z: 1.8111255}
  m_Center: {x: 0.17927557, y: 0.4179243, z: 0.04360187}
--- !u!114 &7637471347634558741
MonoBehaviour:
  m_ObjectHideFlags: 0
  m_CorrespondingSourceObject: {fileID: 0}
  m_PrefabInstance: {fileID: 0}
  m_PrefabAsset: {fileID: 0}
  m_GameObject: {fileID: 92991523382635210}
  m_Enabled: 1
  m_EditorHideFlags: 0
  m_Script: {fileID: 11500000, guid: 5626a2d9ffda9fb44a2c6040cf506f30, type: 3}
  m_Name: 
  m_EditorClassIdentifier: 
  maxHealth: 100
  chipSpeed: 2
  frontHealthBar: {fileID: 0}
  backHealthBar: {fileID: 0}
  damageRate: 0.5
  gameOverUI: {fileID: 0}
--- !u!114 &3815394588235048751
MonoBehaviour:
  m_ObjectHideFlags: 0
  m_CorrespondingSourceObject: {fileID: 0}
  m_PrefabInstance: {fileID: 0}
  m_PrefabAsset: {fileID: 0}
  m_GameObject: {fileID: 92991523382635210}
  m_Enabled: 1
  m_EditorHideFlags: 0
  m_Script: {fileID: 11500000, guid: f6f9cfd1ff808d044a09097f39137d97, type: 3}
  m_Name: 
  m_EditorClassIdentifier: 
  decreaseRate: 2
