%YAML 1.1
%TAG !u! tag:unity3d.com,2011:
--- !u!1001 &3048144930875536225
PrefabInstance:
  m_ObjectHideFlags: 0
  serializedVersion: 2
  m_Modification:
    serializedVersion: 3
    m_TransformParent: {fileID: 0}
    m_Modifications:
    - target: {fileID: 100000, guid: bd5dee0513859474ba6da4bdc51cc44f, type: 3}
      propertyPath: m_Name
      value: Beer
      objectReference: {fileID: 0}
    - target: {fileID: 100000, guid: bd5dee0513859474ba6da4bdc51cc44f, type: 3}
      propertyPath: m_TagString
      value: Food
      objectReference: {fileID: 0}
    - target: {fileID: 400000, guid: bd5dee0513859474ba6da4bdc51cc44f, type: 3}
      propertyPath: m_LocalPosition.x
      value: -0
      objectReference: {fileID: 0}
    - target: {fileID: 400000, guid: bd5dee0513859474ba6da4bdc51cc44f, type: 3}
      propertyPath: m_LocalPosition.y
      value: 0
      objectReference: {fileID: 0}
    - target: {fileID: 400000, guid: bd5dee0513859474ba6da4bdc51cc44f, type: 3}
      propertyPath: m_LocalPosition.z
      value: 0
      objectReference: {fileID: 0}
    - target: {fileID: 400000, guid: bd5dee0513859474ba6da4bdc51cc44f, type: 3}
      propertyPath: m_LocalRotation.w
      value: 1
      objectReference: {fileID: 0}
    - target: {fileID: 400000, guid: bd5dee0513859474ba6da4bdc51cc44f, type: 3}
      propertyPath: m_LocalRotation.x
      value: 0
      objectReference: {fileID: 0}
    - target: {fileID: 400000, guid: bd5dee0513859474ba6da4bdc51cc44f, type: 3}
      propertyPath: m_LocalRotation.y
      value: -0
      objectReference: {fileID: 0}
    - target: {fileID: 400000, guid: bd5dee0513859474ba6da4bdc51cc44f, type: 3}
      propertyPath: m_LocalRotation.z
      value: -0
      objectReference: {fileID: 0}
    - target: {fileID: 400000, guid: bd5dee0513859474ba6da4bdc51cc44f, type: 3}
      propertyPath: m_LocalEulerAnglesHint.x
      value: 0
      objectReference: {fileID: 0}
    - target: {fileID: 400000, guid: bd5dee0513859474ba6da4bdc51cc44f, type: 3}
      propertyPath: m_LocalEulerAnglesHint.y
      value: 0
      objectReference: {fileID: 0}
    - target: {fileID: 400000, guid: bd5dee0513859474ba6da4bdc51cc44f, type: 3}
      propertyPath: m_LocalEulerAnglesHint.z
      value: 0
      objectReference: {fileID: 0}
    - target: {fileID: 2300000, guid: bd5dee0513859474ba6da4bdc51cc44f, type: 3}
      propertyPath: m_Materials.Array.data[0]
      value: 
      objectReference: {fileID: 2100000, guid: 56b52f1f1b2408d4c96e89a9df401175, type: 2}
    - target: {fileID: 2300016, guid: bd5dee0513859474ba6da4bdc51cc44f, type: 3}
      propertyPath: m_Materials.Array.data[0]
      value: 
      objectReference: {fileID: 2100000, guid: 56b52f1f1b2408d4c96e89a9df401175, type: 2}
    m_RemovedComponents: []
    m_RemovedGameObjects: []
    m_AddedGameObjects: []
    m_AddedComponents:
    - targetCorrespondingSourceObject: {fileID: 100000, guid: bd5dee0513859474ba6da4bdc51cc44f,
        type: 3}
      insertIndex: -1
      addedObject: {fileID: 6233493333496362160}
    - targetCorrespondingSourceObject: {fileID: 100000, guid: bd5dee0513859474ba6da4bdc51cc44f,
        type: 3}
      insertIndex: -1
      addedObject: {fileID: 2011728943507083118}
  m_SourcePrefab: {fileID: 100100000, guid: bd5dee0513859474ba6da4bdc51cc44f, type: 3}
--- !u!1 &3048144930875635137 stripped
GameObject:
  m_CorrespondingSourceObject: {fileID: 100000, guid: bd5dee0513859474ba6da4bdc51cc44f,
    type: 3}
  m_PrefabInstance: {fileID: 3048144930875536225}
  m_PrefabAsset: {fileID: 0}
--- !u!65 &6233493333496362160
BoxCollider:
  m_ObjectHideFlags: 0
  m_CorrespondingSourceObject: {fileID: 0}
  m_PrefabInstance: {fileID: 0}
  m_PrefabAsset: {fileID: 0}
  m_GameObject: {fileID: 3048144930875635137}
  m_Material: {fileID: 0}
  m_IncludeLayers:
    serializedVersion: 2
    m_Bits: 0
  m_ExcludeLayers:
    serializedVersion: 2
    m_Bits: 0
  m_LayerOverridePriority: 0
  m_IsTrigger: 0
  m_ProvidesContacts: 0
  m_Enabled: 1
  serializedVersion: 3
  m_Size: {x: 0.101997614, y: 0.1429751, z: 0.14857168}
  m_Center: {x: 0.00036735833, y: 0.009049339, z: -0.015688816}
--- !u!54 &2011728943507083118
Rigidbody:
  m_ObjectHideFlags: 0
  m_CorrespondingSourceObject: {fileID: 0}
  m_PrefabInstance: {fileID: 0}
  m_PrefabAsset: {fileID: 0}
  m_GameObject: {fileID: 3048144930875635137}
  serializedVersion: 4
  m_Mass: 1
  m_Drag: 0
  m_AngularDrag: 0.05
  m_CenterOfMass: {x: 0, y: 0, z: 0}
  m_InertiaTensor: {x: 1, y: 1, z: 1}
  m_InertiaRotation: {x: 0, y: 0, z: 0, w: 1}
  m_IncludeLayers:
    serializedVersion: 2
    m_Bits: 0
  m_ExcludeLayers:
    serializedVersion: 2
    m_Bits: 0
  m_ImplicitCom: 1
  m_ImplicitTensor: 1
  m_UseGravity: 1
  m_IsKinematic: 0
  m_Interpolate: 0
  m_Constraints: 126
  m_CollisionDetection: 0
