%YAML 1.1
%TAG !u! tag:unity3d.com,2011:
--- !u!1001 &805252037842487035
PrefabInstance:
  m_ObjectHideFlags: 0
  serializedVersion: 2
  m_Modification:
    serializedVersion: 3
    m_TransformParent: {fileID: 0}
    m_Modifications:
    - target: {fileID: 100000, guid: 47413501c3ee7de47a4244b27444360c, type: 3}
      propertyPath: m_Name
      value: Bread
      objectReference: {fileID: 0}
    - target: {fileID: 100000, guid: 47413501c3ee7de47a4244b27444360c, type: 3}
      propertyPath: m_TagString
      value: Food
      objectReference: {fileID: 0}
    - target: {fileID: 400000, guid: 47413501c3ee7de47a4244b27444360c, type: 3}
      propertyPath: m_LocalPosition.x
      value: 0.0000000029538787
      objectReference: {fileID: 0}
    - target: {fileID: 400000, guid: 47413501c3ee7de47a4244b27444360c, type: 3}
      propertyPath: m_LocalPosition.y
      value: 0
      objectReference: {fileID: 0}
    - target: {fileID: 400000, guid: 47413501c3ee7de47a4244b27444360c, type: 3}
      propertyPath: m_LocalPosition.z
      value: -0.0000000060733285
      objectReference: {fileID: 0}
    - target: {fileID: 400000, guid: 47413501c3ee7de47a4244b27444360c, type: 3}
      propertyPath: m_LocalRotation.w
      value: 1
      objectReference: {fileID: 0}
    - target: {fileID: 400000, guid: 47413501c3ee7de47a4244b27444360c, type: 3}
      propertyPath: m_LocalRotation.x
      value: 0
      objectReference: {fileID: 0}
    - target: {fileID: 400000, guid: 47413501c3ee7de47a4244b27444360c, type: 3}
      propertyPath: m_LocalRotation.y
      value: -0
      objectReference: {fileID: 0}
    - target: {fileID: 400000, guid: 47413501c3ee7de47a4244b27444360c, type: 3}
      propertyPath: m_LocalRotation.z
      value: -0
      objectReference: {fileID: 0}
    - target: {fileID: 400000, guid: 47413501c3ee7de47a4244b27444360c, type: 3}
      propertyPath: m_LocalEulerAnglesHint.x
      value: 0
      objectReference: {fileID: 0}
    - target: {fileID: 400000, guid: 47413501c3ee7de47a4244b27444360c, type: 3}
      propertyPath: m_LocalEulerAnglesHint.y
      value: 0
      objectReference: {fileID: 0}
    - target: {fileID: 400000, guid: 47413501c3ee7de47a4244b27444360c, type: 3}
      propertyPath: m_LocalEulerAnglesHint.z
      value: 0
      objectReference: {fileID: 0}
    - target: {fileID: 2300000, guid: 47413501c3ee7de47a4244b27444360c, type: 3}
      propertyPath: m_Materials.Array.data[0]
      value: 
      objectReference: {fileID: 2100000, guid: 298f12067a0863346a1feab6f8dff1aa, type: 2}
    - target: {fileID: 2300002, guid: 47413501c3ee7de47a4244b27444360c, type: 3}
      propertyPath: m_Materials.Array.data[0]
      value: 
      objectReference: {fileID: 2100000, guid: 298f12067a0863346a1feab6f8dff1aa, type: 2}
    - target: {fileID: 2300004, guid: 47413501c3ee7de47a4244b27444360c, type: 3}
      propertyPath: m_Materials.Array.data[0]
      value: 
      objectReference: {fileID: 2100000, guid: 298f12067a0863346a1feab6f8dff1aa, type: 2}
    - target: {fileID: 2300006, guid: 47413501c3ee7de47a4244b27444360c, type: 3}
      propertyPath: m_Materials.Array.data[0]
      value: 
      objectReference: {fileID: 2100000, guid: 298f12067a0863346a1feab6f8dff1aa, type: 2}
    m_RemovedComponents: []
    m_RemovedGameObjects: []
    m_AddedGameObjects: []
    m_AddedComponents:
    - targetCorrespondingSourceObject: {fileID: 100000, guid: 47413501c3ee7de47a4244b27444360c,
        type: 3}
      insertIndex: -1
      addedObject: {fileID: 2472555688833728101}
    - targetCorrespondingSourceObject: {fileID: 100000, guid: 47413501c3ee7de47a4244b27444360c,
        type: 3}
      insertIndex: -1
      addedObject: {fileID: 509361782968285983}
  m_SourcePrefab: {fileID: 100100000, guid: 47413501c3ee7de47a4244b27444360c, type: 3}
--- !u!1 &805252037842518107 stripped
GameObject:
  m_CorrespondingSourceObject: {fileID: 100000, guid: 47413501c3ee7de47a4244b27444360c,
    type: 3}
  m_PrefabInstance: {fileID: 805252037842487035}
  m_PrefabAsset: {fileID: 0}
--- !u!65 &2472555688833728101
BoxCollider:
  m_ObjectHideFlags: 0
  m_CorrespondingSourceObject: {fileID: 0}
  m_PrefabInstance: {fileID: 0}
  m_PrefabAsset: {fileID: 0}
  m_GameObject: {fileID: 805252037842518107}
  m_Material: {fileID: 0}
  m_IncludeLayers:
    serializedVersion: 2
    m_Bits: 0
  m_ExcludeLayers:
    serializedVersion: 2
    m_Bits: 0
  m_LayerOverridePriority: 0
  m_IsTrigger: 0
  m_ProvidesContacts: 0
  m_Enabled: 1
  serializedVersion: 3
  m_Size: {x: 1, y: 1, z: 1}
  m_Center: {x: 0, y: 0, z: 0}
--- !u!54 &509361782968285983
Rigidbody:
  m_ObjectHideFlags: 0
  m_CorrespondingSourceObject: {fileID: 0}
  m_PrefabInstance: {fileID: 0}
  m_PrefabAsset: {fileID: 0}
  m_GameObject: {fileID: 805252037842518107}
  serializedVersion: 4
  m_Mass: 1
  m_Drag: 0
  m_AngularDrag: 0.05
  m_CenterOfMass: {x: 0, y: 0, z: 0}
  m_InertiaTensor: {x: 1, y: 1, z: 1}
  m_InertiaRotation: {x: 0, y: 0, z: 0, w: 1}
  m_IncludeLayers:
    serializedVersion: 2
    m_Bits: 0
  m_ExcludeLayers:
    serializedVersion: 2
    m_Bits: 0
  m_ImplicitCom: 1
  m_ImplicitTensor: 1
  m_UseGravity: 1
  m_IsKinematic: 0
  m_Interpolate: 0
  m_Constraints: 126
  m_CollisionDetection: 0
